// Jest Snapshot v1, https://goo.gl/fbAQLP

exports[`renders correctly 1`] = `
<section
  className="forms"
  id="profil"
>
  <form
    onSubmit={[Function]}
  >
    <h2>
      Votre profil
    </h2>
    <ul>
      <li>
        Adresse mail: 
      </li>
      <li>
        Nom d'utilisateur: 
      </li>
      <li>
        <input
          name="password"
          onBlur={[Function]}
          onChange={[Function]}
          onFocus={[Function]}
          placeholder="Mot de passe"
          type="password"
          value=""
        />
      </li>
      <li>
        <button
          type="submit"
        >
          Se désinscrire
        </button>
      </li>
      <p>
        
      </p>
      <p
        id="red"
      >
        Attention: Cette action est irréversible!
      </p>
    </ul>
  </form>
  <div
    id="normal_bg"
  />
</section>
`;
